Create data buy — create_data_buy • explore
…
bbi_speed_ind = Customer has a Broadband Internet (BBI) with extra speed

bbi_usg_gb = Broadband Internet (BBI) usage in Gigabyte (GB) last month

hh_single = Expected to be a Single Household (1 = yes, 0 = no)

Target in dataset:
buy (may be renamed) = Did customer buy a new product in next month?
(1 = yes, 0 = no)

    Examples

create_data_buy()
#> # A tibble: 1,000 × 13
#>    period   buy   age city_ind female_ind fixedvoice_ind fixeddata_ind
#>     <int> <int> <int>    <int>      <int>          <int>         <int>
#>  1 202012     1    39        1          0              0             1
#>  2 202012     0    57        0          0              0             1
#>  3 202012     1    55        0          1              0             1
#>  4 202012     0    66        0          0              0             1
#>  5 202012     0    71        0          1              0             1
#>  6 202012     1    44        1          0              0             1
#>  7 202012     0    64        0          0              0             1
#>  8 202012     0    51        1          0              0             1
#>  9 202012     0    70        1          0              0             1
#> 10 202012     1    44        1          1              0             1
#> # ℹ 990 more rows
#> # ℹ 6 more variables: fixedtv_ind <int>, mobilevoice_ind <int>,
#> #   mobiledata_prd <chr>, bbi_speed_ind <int>, bbi_usg_gb <int>,
#> #   hh_single <int>
…
